<svg width="32" height="20" viewBox="0 0 32 20" fill="none" xmlns="http://www.w3.org/2000/svg">
<path d="M0 2C0 0.895431 0.895431 0 2 0H30C31.1046 0 32 0.895431 32 2V18C32 19.1046 31.1046 20 30 20H2C0.895431 20 0 19.1046 0 18V2Z" fill="#C2D6FF"/>
<path d="M31.9677 3.50879H0.0323278C0.0144737 3.50879 0 3.5267 0 3.54879V7.46879C0 7.49088 0.0144735 7.50879 0.0323277 7.50879H31.9677C31.9855 7.50879 32 7.49088 32 7.46879V3.54879C32 3.5267 31.9855 3.50879 31.9677 3.50879Z" fill="#7BA6FF"/>
<rect x="25.5522" y="14.6475" width="4.5" height="3" rx="0.5" fill="#7BA6FF"/>
</svg>
