<svg width="24" height="16" viewBox="0 0 24 16" fill="none" xmlns="http://www.w3.org/2000/svg">
<path d="M24 13.8667C24 15.0448 22.9766 16 21.7143 16H2.28571C1.02343 16 0 15.0448 0 13.8667V2.13333C0 0.9552 1.02343 0 2.28571 0H21.7143C22.9766 0 24 0.9552 24 2.13333V13.8667Z" fill="#1565C0"/>
<path d="M6.95814 5.00055L5.48589 9.27216C5.48589 9.27216 5.11194 7.46523 5.07494 7.23834C4.23678 5.37797 3 5.48159 3 5.48159L4.45767 11V10.9989H6.22986L8.68043 5.00055H6.95814ZM8.36143 11H9.97103L10.9443 5.00055H9.31452L8.36143 11ZM19.7531 5.00055H18.0594L15.4188 11H17.0178L17.3474 10.1432H19.3635L19.535 11H21L19.7531 5.00055ZM17.7937 8.99727L18.67 6.73002L19.1286 8.99727H17.7937ZM13.2278 6.74911C13.2278 6.4186 13.507 6.17262 14.3076 6.17262C14.8279 6.17262 15.4238 6.54022 15.4238 6.54022L15.6851 5.28088C15.6851 5.28088 14.9238 5 14.1764 5C12.4838 5 11.6109 5.78756 11.6109 6.78456C11.6109 8.58767 13.8417 8.34061 13.8417 9.2667C13.8417 9.42542 13.7122 9.79247 12.7832 9.79247C11.8514 9.79247 11.2364 9.46032 11.2364 9.46032L10.9589 10.6689C10.9589 10.6689 11.5548 10.9995 12.7064 10.9995C13.8608 10.9995 15.462 10.1595 15.462 8.95309C15.462 7.50177 13.2278 7.39705 13.2278 6.74911Z" fill="white"/>
<path d="M5.5 9L4.94634 5.71248C4.94634 5.71248 4.69587 5 4.04478 5C3.39368 5 1.5 5 1.5 5C1.5 5 4.74459 6.15769 5.5 9Z" fill="#FFC107"/>
</svg>
