<svg width="89" height="44" viewBox="0 0 89 44" fill="none" xmlns="http://www.w3.org/2000/svg">
<g clip-path="url(#clip0_45_20632)">
<path d="M21.5938 35.513H66.6853C66.8872 35.513 67.0809 35.5924 67.2237 35.7337C67.3665 35.875 67.4468 36.0666 67.4468 36.2664V39.7515C67.4468 40.3094 67.3357 40.8619 67.1199 41.3773C66.9041 41.8928 66.5878 42.3611 66.1891 42.7556C65.7904 43.1502 65.317 43.4631 64.796 43.6766C64.2751 43.8901 63.7167 44 63.1528 44H25.1262C24.5623 44 24.004 43.8901 23.483 43.6766C22.962 43.4631 22.4887 43.1502 22.0899 42.7556C21.6912 42.3611 21.3749 41.8928 21.1591 41.3773C20.9433 40.8619 20.8323 40.3094 20.8323 39.7515V36.2664C20.8323 36.0666 20.9125 35.875 21.0553 35.7337C21.1981 35.5924 21.3918 35.513 21.5938 35.513Z" fill="#F9A332"/>
<path d="M67.4468 39.7515V36.2664C67.4462 36.0668 67.3658 35.8755 67.2231 35.7343C67.0804 35.5932 66.8871 35.5136 66.6853 35.513H64.293C58.7919 39.7717 49.0463 42.3015 40.4552 44H63.1528C64.2906 43.9967 65.3809 43.548 66.1854 42.752C66.99 41.956 67.4434 40.8772 67.4468 39.7515Z" fill="#F9A332"/>
<path d="M65.3272 25.7766H22.9519C22.4403 25.7766 22.0256 26.1869 22.0256 26.693V28.1928C22.0256 28.6989 22.4403 29.1092 22.9519 29.1092H65.3272C65.8387 29.1092 66.2534 28.6989 66.2534 28.1928V26.693C66.2534 26.1869 65.8387 25.7766 65.3272 25.7766Z" fill="#DB2839"/>
<path d="M59.3416 35.513H63.4343C64.1567 35.5109 64.8489 35.226 65.3597 34.7206C65.8706 34.2152 66.1585 33.5303 66.1606 32.8155V31.8067C66.1594 31.3519 66.0421 30.9048 65.8195 30.5068C65.597 30.1089 65.2764 29.773 64.8876 29.5304C64.0383 32.3045 61.299 34.3553 59.3416 35.513Z" fill="#7C4226"/>
<path d="M65.3886 25.8852H23.3255C22.5127 25.3021 22.0256 24.8202 22.0256 24.2312V19.843C22.0265 19.5592 22.1408 19.2873 22.3436 19.0866C22.5464 18.886 22.8212 18.7729 23.108 18.772H65.171C65.4578 18.7729 65.7326 18.886 65.9354 19.0866C66.1382 19.2873 66.2525 19.5592 66.2534 19.843V24.2312C66.2534 24.8202 65.7663 25.3021 65.3886 25.8852Z" fill="#CB651E"/>
<path d="M68.0965 21.1685C68.0907 21.1572 66.2019 17.4477 66.2019 17.4477H22.0772C22.0772 17.4477 20.1884 21.1572 20.1826 21.1685C19.2116 23.0756 22.3812 23.5238 23.3989 22.903C23.8145 22.6495 24.1278 22.2457 24.5312 21.9786C25.8406 21.1116 27.2997 21.6184 28.4142 22.6037C28.4142 22.6037 32.0726 26.4785 35.4698 22.9086C36.6041 21.7165 37.985 21.0761 39.5172 21.8852C40.9041 22.6176 41.9559 24.0541 43.4299 24.5947C44.4491 24.9686 45.5709 24.6438 46.4124 23.9452C46.979 23.4749 47.2778 22.7471 47.8975 22.3516C49.502 21.3278 51.479 21.5107 52.8094 22.9087C56.2065 26.4784 59.8649 22.6037 59.8649 22.6037C60.9794 21.6184 62.4385 21.1116 63.7479 21.9786C64.1513 22.2457 64.4646 22.6495 64.8802 22.903C65.8979 23.5238 69.0675 23.0756 68.0965 21.1685Z" fill="#4BB759"/>
<path d="M21.2118 18.0949V18.0948C21.2118 9.57364 31.1059 0 43.6952 0H43.6952C56.2845 0 66.991 9.57364 66.991 18.0948V18.0949H21.2118Z" fill="#F9A332"/>
<path d="M57.6234 4.38782C54.8908 11.5462 48.6068 15.7303 43.2269 18.0949H66.9633C66.8599 12.6131 62.3035 6.90897 57.6234 4.38782Z" fill="#EC9735"/>
<path d="M35.545 6.25986C35.0874 6.79874 34.5163 7.06928 34.2696 6.86412C34.0228 6.65897 34.1938 6.0558 34.6515 5.51692C35.1091 4.97804 35.6802 4.7075 35.9269 4.91265C36.1737 5.11782 36.0027 5.72098 35.545 6.25986Z" fill="white"/>
<path d="M52.0478 6.38843C51.4317 6.74036 50.8016 6.80179 50.6405 6.52561C50.4793 6.24944 50.8481 5.74025 51.4642 5.38831C52.0803 5.03637 52.7104 4.97495 52.8716 5.25112C53.0327 5.5273 52.6639 6.03649 52.0478 6.38843Z" fill="white"/>
<path d="M43.9446 6.26263C44.0928 5.5742 43.9574 4.96226 43.6422 4.89584C43.3269 4.82941 42.9513 5.33365 42.8031 6.02209C42.6549 6.71052 42.7903 7.32246 43.1056 7.38889C43.4208 7.45532 43.7965 6.95107 43.9446 6.26263Z" fill="white"/>
<path d="M40.1085 3.68161C40.5783 4.21013 40.763 4.80932 40.521 5.01994C40.279 5.23055 39.7019 4.97284 39.2321 4.44432C38.7622 3.9158 38.5775 3.31661 38.8196 3.10599C39.0616 2.89538 39.6386 3.15309 40.1085 3.68161Z" fill="white"/>
<path d="M48.1296 3.8421C48.7908 4.1019 49.2303 4.55277 49.1114 4.84915C48.9924 5.14554 48.36 5.17519 47.6988 4.91539C47.0377 4.65558 46.5981 4.20471 46.7171 3.90833C46.836 3.61195 47.4685 3.5823 48.1296 3.8421Z" fill="white"/>
<path d="M30.124 26.0751L41.7111 29.3344H48.8887C48.8887 29.3344 41.9153 26.199 30.124 26.0751Z" fill="#AD262B"/>
<path d="M23.2254 29.1092H65.0538C65.4594 29.1092 65.8484 29.2686 66.1353 29.5524C66.4221 29.8362 66.5832 30.2211 66.5832 30.6225V33.9997C66.5832 34.401 66.4221 34.7859 66.1353 35.0697C65.8484 35.3535 65.4594 35.513 65.0538 35.513H23.2254C22.8197 35.513 22.4307 35.3535 22.1439 35.0697C21.8571 34.7859 21.6959 34.401 21.6959 33.9997V30.6225C21.6959 30.2211 21.8571 29.8362 22.1439 29.5524C22.4307 29.2686 22.8197 29.1092 23.2254 29.1092Z" fill="#8E3C07"/>
<path d="M40.8624 29.1092C40.8624 29.1092 51.9456 32.3009 55.2769 34.767L61.3077 29.1996L40.8624 29.1092Z" fill="#7C4226"/>
<path d="M55.0968 32.9816L61.9926 25.9004L28.4331 25.8853C28.4331 25.8853 43.7096 26.9304 55.0968 32.9816Z" fill="#FCAF15"/>
<path d="M22.5121 16.7787C22.5121 16.7787 25.2851 4.66921 39.0177 1.9787C39.0177 1.9787 28.712 7.68706 22.5121 16.7787Z" fill="#F8CE36"/>
</g>
<defs>
<clipPath id="clip0_45_20632">
<rect width="48.2791" height="44" fill="white" transform="translate(20)"/>
</clipPath>
</defs>
</svg>
