<svg width="24" height="24" viewBox="0 0 24 24" fill="none" xmlns="http://www.w3.org/2000/svg">
<path d="M19.4293 3.57071L19.5 3.64142L19.5707 3.57071L20.9 2.24142V21.7586L19.5707 20.4293L19.5 20.3586L19.4293 20.4293L18 21.8586L16.5707 20.4293L16.5 20.3586L16.4293 20.4293L15 21.8586L13.5707 20.4293L13.5 20.3586L13.4293 20.4293L12 21.8586L10.5707 20.4293L10.5 20.3586L10.4293 20.4293L9 21.8586L7.57071 20.4293L7.5 20.3586L7.42929 20.4293L6 21.8586L4.57071 20.4293L4.5 20.3586L4.42929 20.4293L3.1 21.7586V2.24142L4.42929 3.57071L4.5 3.64142L4.57071 3.57071L6 2.14142L7.42929 3.57071L7.5 3.64142L7.57071 3.57071L9 2.14142L10.4293 3.57071L10.5 3.64142L10.5707 3.57071L12 2.14142L13.4293 3.57071L13.5 3.64142L13.5707 3.57071L15 2.14142L16.4293 3.57071L16.5 3.64142L16.5707 3.57071L18 2.14142L19.4293 3.57071ZM19 19.19H19.1V19.09V4.91V4.81H19H5H4.9V4.91V19.09V19.19H5H19ZM17.9 15.1V16.9H6.1V15.1H17.9ZM17.9 11.1V12.9H6.1V11.1H17.9ZM17.9 7.1V8.9H6.1V7.1H17.9Z" fill="#E4002B" stroke="white" stroke-width="0.2"/>
</svg>
