<svg width="161" height="176" viewBox="0 0 161 176" fill="none" xmlns="http://www.w3.org/2000/svg">
<ellipse cx="80.5869" cy="80.0099" rx="79.606" ry="79.606" fill="#E4002B"/>
<rect x="49.1987" y="45.8737" width="27.949" height="11.2817" rx="5.64085" transform="rotate(27 49.1987 45.8737)" fill="#CC8C83"/>
<rect width="19.1936" height="10.5045" rx="5.25227" transform="matrix(0.669234 0.743052 -0.726402 0.68727 47.3599 76.2383)" fill="#B8786F"/>
<rect width="19.2986" height="10.5537" rx="5.27686" transform="matrix(0.665592 0.746316 -0.723017 0.69083 47.3599 59.9211)" fill="#B8786F"/>
<path d="M52.0295 128.309C46.1831 121.917 42.1431 107.945 42.7008 101.679C42.8556 99.1003 43.1923 97.4674 43.5623 96.0767C43.5781 96.011 43.6003 95.9407 43.6288 95.8665C44.4685 93.4324 47.1912 92.7582 48.879 92.8101L54.3449 99.6053L50.9745 103.499C53.5049 103.781 97.3039 98.3297 97.3039 98.3297C97.3039 98.3297 113.848 90.413 114.412 95.2039C114.975 99.9948 118.13 117.012 107.398 125.515C100.534 133.93 99.386 141.374 99.386 142.918V164.783H58.3731C54.9522 157.394 61.5747 138.744 52.0295 128.309Z" fill="#CC8C83"/>
<g clip-path="url(#clip0)">
<rect x="64.5596" y="13.35" width="54.0606" height="114.325" rx="2.8" transform="rotate(11.2 64.5596 13.35)" fill="white"/>
<rect x="58.9946" y="116.264" width="25" height="2" rx="1" transform="rotate(11.2 58.9946 116.264)" fill="#E4002B"/>
<rect x="76.0107" y="38.0446" width="22" height="22" rx="11" transform="rotate(11.2 76.0107 38.0446)" fill="white"/>
<path d="M86.8012 40.1811C80.8665 39.006 75.0493 42.9003 73.8742 48.8351C72.699 54.7698 76.5933 60.587 82.5281 61.7621C88.4629 62.9373 94.2801 59.043 95.4552 53.1082C96.6303 47.1734 92.736 41.3563 86.8012 40.1811ZM89.8319 47.6706C90.2909 47.3635 90.9118 47.4866 91.219 47.9454L92.1236 49.2968C92.4308 49.7557 92.3079 50.3767 91.8491 50.684L83.3859 56.3522C82.9268 56.6596 82.3055 56.5365 81.9983 56.0773L78.4969 50.8435C78.1898 50.3846 78.3129 49.7637 78.7717 49.4565L80.1234 48.5516C80.5822 48.2445 81.203 48.3673 81.5104 48.8259L82.9957 51.042C83.303 51.5005 83.9236 51.6233 84.3824 51.3164L89.8319 47.6706Z" fill="#25A65B"/>
<rect x="63.1338" y="62.4058" width="37.8012" height="2.5983" rx="1.29915" transform="rotate(11.2 63.1338 62.4058)" fill="#F1F1F1"/>
<rect x="70.9795" y="67.9055" width="19.92" height="2.5983" rx="1.29915" transform="rotate(11.2 70.9795 67.9055)" fill="#F1F1F1"/>
</g>
<path d="M72.3295 15.2962L109.665 22.6889L109.821 21.9042L72.4849 14.5115L72.3295 15.2962ZM115.644 31.6204L96.5463 128.073L97.3311 128.228L116.429 31.7757L115.644 31.6204ZM87.6149 134.052L50.2791 126.659L50.1237 127.444L87.4595 134.837L87.6149 134.052ZM44.3 117.728L63.3981 21.2753L62.6133 21.1199L43.5152 117.572L44.3 117.728ZM50.2791 126.659C46.1616 125.844 43.4847 121.845 44.3 117.728L43.5152 117.572C42.6141 122.123 45.5728 126.543 50.1237 127.444L50.2791 126.659ZM96.5463 128.073C95.731 132.19 91.7323 134.867 87.6149 134.052L87.4595 134.837C92.0103 135.738 96.43 132.779 97.3311 128.228L96.5463 128.073ZM109.665 22.6889C113.783 23.5042 116.46 27.5029 115.644 31.6204L116.429 31.7757C117.33 27.2249 114.372 22.8052 109.821 21.9042L109.665 22.6889ZM72.4849 14.5115C67.9341 13.6104 63.5144 16.5691 62.6133 21.1199L63.3981 21.2753C64.2133 17.1579 68.2121 14.481 72.3295 15.2962L72.4849 14.5115Z" fill="#BDBDBD"/>
<path d="M106.902 117.53C111.061 115.919 114.508 110.945 115.237 106.239L115.155 104.755L112.501 69.5429C112.319 67.1203 110.687 65.1372 108.513 64.3789C108.171 64.2587 107.814 64.1697 107.449 64.1131C107.093 64.0579 106.727 64.0366 106.355 64.048C106.283 64.0501 106.21 64.0535 106.138 64.0589C106.132 64.0597 106.127 64.0589 106.122 64.0598C102.861 64.2876 100.416 67.095 100.66 70.3382L102.625 88.5582C102.674 94.0564 103.183 99.5229 103.236 114.433L106.902 117.53Z" fill="#CC8C83"/>
<rect width="16.1023" height="11.344" rx="5.67199" transform="matrix(0.900586 0.434677 -0.410751 0.911748 44.5508 59.6659)" fill="#CC8C83"/>
<rect width="18.1876" height="11.2513" rx="5.62564" transform="matrix(0.902249 0.431216 -0.414119 0.910223 44.6084 76.0188)" fill="#CC8C83"/>
<rect x="44.8179" y="91.7377" width="17.2212" height="10.3846" rx="5.19231" transform="rotate(13.6389 44.8179 91.7377)" fill="#CC8C83"/>
<path d="M98.3527 149.483H58.5869C55.8255 149.483 53.5869 151.722 53.5869 154.483V175.203C53.5869 177.964 55.8255 180.203 58.5869 180.203H98.3527C101.114 180.203 103.353 177.964 103.353 175.203V154.483C103.353 151.722 101.114 149.483 98.3527 149.483Z" fill="#7D7D7D"/>
<defs>
<clipPath id="clip0">
<path d="M63.0057 21.1976C63.8639 16.8635 68.0731 14.0457 72.4072 14.9039L109.743 22.2965C114.077 23.1547 116.895 27.3639 116.037 31.6981L96.9387 128.15C96.0805 132.485 91.8713 135.302 87.5372 134.444L50.2014 127.052C45.8672 126.193 43.0494 121.984 43.9076 117.65L63.0057 21.1976Z" fill="white"/>
</clipPath>
</defs>
</svg>
