<svg width="32" height="20" viewBox="0 0 32 20" fill="none" xmlns="http://www.w3.org/2000/svg">
<g clip-path="url(#clip0)">
<path d="M0 1C0 0.447715 0.447715 0 1 0H31C31.5523 0 32 0.447715 32 1V19C32 19.5523 31.5523 20 31 20H1C0.447715 20 0 19.5523 0 19V1Z" fill="#C6E9F1"/>
<path d="M19.9355 17.957L19.9355 20L-1.01589 20L-1.01589 17.957L19.9355 17.957Z" fill="#63ABC5" fill-opacity="0.5"/>
<path d="M0 12H7.96376V20.003H0V12Z" fill="#BCDCEF"/>
<path fill-rule="evenodd" clip-rule="evenodd" d="M27.7085 18.0042V15.8213H27.9085V18.0042H27.7085ZM28.7688 18.0042V15.8213H28.9688V18.0042H28.7688ZM29.7978 18.0042V15.8213H29.9978V18.0042H29.7978Z" fill="#4A5E65"/>
<g opacity="0.4" clip-path="url(#clip1)">
<path d="M29.3115 4.85106V2.00012H29.9969V4.85106H29.3115Z" fill="#84C0D4"/>
<path d="M24.2646 3.39027V2.00012H27.4851V3.39027H24.2646Z" fill="#8BCBDD"/>
<path d="M29.9933 3.34583L27.7109 5.1333H29.9933L29.9933 3.34583Z" fill="#4794C5"/>
<path d="M26.0972 5.13331V3.74316H27.4873V5.13331H26.0972Z" fill="#8BCBDD"/>
<path d="M24.2646 5.13331V3.74316H25.6548V5.13331H24.2646Z" fill="#416F81"/>
<path d="M26.0972 1.99994L27.485 3.38782L27.485 1.99994L26.0972 1.99994Z" fill="#4794C5"/>
<path d="M24.2671 3.38812L25.655 2.00024L25.655 3.38812L24.2671 3.38812Z" fill="#91B8C4"/>
<circle cx="28.4048" cy="2.69409" r="0.693848" fill="#EDF8F9"/>
</g>
<path d="M2.86572 0H5.10186V16H2.86572V0Z" fill="#B1B4B5" fill-opacity="0.5"/>
<g opacity="0.6">
<path d="M6.53849 7.99996C6.53849 9.42568 5.38272 10.5815 3.95699 10.5815C2.53127 10.5815 1.37549 9.42568 1.37549 7.99996C1.37549 6.57423 2.53127 5.41846 3.95699 5.41846C5.38272 5.41846 6.53849 6.57423 6.53849 7.99996Z" fill="#EDF8F9"/>
<path d="M3.32373 7.36707H4.58959V8.63293H3.32373V7.36707Z" fill="#BEDBE3"/>
</g>
<path d="M10.5073 13.5248H12.243V10.9842H13.0769L14.4054 13.5248H16.3447L14.7351 10.6642C15.4817 10.3152 15.9763 9.63639 15.9763 8.57945C15.9763 6.83405 14.6963 6.30073 13.1545 6.30073H10.5073V13.5248ZM12.243 9.617V7.67766H13.0188C13.843 7.67766 14.289 7.90068 14.289 8.57945C14.289 9.25822 13.843 9.617 13.0188 9.617H12.243Z" fill="url(#paint0_linear)"/>
<path d="M18.9144 14.7368H20.0489V13.5829C21.2028 13.3308 21.7749 12.4969 21.7749 11.4303C21.7749 9.34549 18.8659 9.39397 18.8659 8.41461C18.8659 7.92977 19.1374 7.74554 19.6514 7.74554C20.0974 7.74554 20.4465 7.92977 20.8441 8.28855L21.6974 7.29949C21.2707 6.83405 20.7568 6.49466 20.0489 6.388V5.26318H18.9144V6.40739C17.8575 6.62072 17.2272 7.38676 17.2272 8.49218C17.2272 10.4703 20.1265 10.4994 20.1265 11.5563C20.1265 12.0315 19.8647 12.2642 19.2635 12.2642C18.7593 12.2642 18.2744 12.0606 17.7023 11.6242L16.946 12.7878C17.4793 13.2726 18.2647 13.5635 18.9144 13.6411V14.7368Z" fill="url(#paint1_linear)"/>
</g>
<defs>
<linearGradient id="paint0_linear" x1="14.205" y1="5.60857" x2="19.4344" y2="15.1177" gradientUnits="userSpaceOnUse">
<stop stop-color="#416F81"/>
<stop offset="0.4375" stop-color="#4794C5"/>
<stop offset="0.9999" stop-color="#8BCBDD"/>
<stop offset="1" stop-color="#C6E9F1"/>
</linearGradient>
<linearGradient id="paint1_linear" x1="14.205" y1="5.60857" x2="19.4344" y2="15.1177" gradientUnits="userSpaceOnUse">
<stop stop-color="#416F81"/>
<stop offset="0.4375" stop-color="#4794C5"/>
<stop offset="0.9999" stop-color="#8BCBDD"/>
<stop offset="1" stop-color="#C6E9F1"/>
</linearGradient>
<clipPath id="clip0">
<path d="M0 1C0 0.447715 0.447715 0 1 0H31C31.5523 0 32 0.447715 32 1V19C32 19.5523 31.5523 20 31 20H1C0.447715 20 0 19.5523 0 19V1Z" fill="white"/>
</clipPath>
<clipPath id="clip1">
<rect width="5.73275" height="3.13334" fill="white" transform="translate(24.2646 2)"/>
</clipPath>
</defs>
</svg>
