<svg width="16" height="16" viewBox="0 0 16 16" fill="none" xmlns="http://www.w3.org/2000/svg">
<path d="M6.66667 0H9.33333V16H6.66667V0Z" fill="#E4002B"/>
<path d="M16 6.66667V9.33333L0 9.33333L1.16564e-07 6.66667L16 6.66667Z" fill="#E4002B"/>
</svg>
