<svg width="360" height="360" viewBox="0 0 360 360" fill="none" xmlns="http://www.w3.org/2000/svg">
<path d="M360 0H0V360H360V0Z" fill="#F5F5F5"/>
<path opacity="0.5" d="M154.48 148.039C154.48 153.125 152.46 158.003 148.863 161.599C145.267 165.195 140.389 167.216 135.304 167.216C130.218 167.216 125.34 165.195 121.744 161.599C118.148 158.003 116.128 153.125 116.128 148.039C116.128 142.954 118.148 138.076 121.744 134.48C125.34 130.884 130.218 128.863 135.304 128.863C140.389 128.863 145.267 130.884 148.863 134.48C152.46 138.076 154.48 142.954 154.48 148.039Z" fill="#BFBFBF"/>
<path opacity="0.5" fill-rule="evenodd" clip-rule="evenodd" d="M83.3437 108.911C86.94 105.315 91.8175 103.295 96.9035 103.295H263.097C268.181 103.295 273.06 105.315 276.657 108.911C280.252 112.508 282.272 117.385 282.272 122.471V192.54C280.096 192.227 277.872 192.065 275.609 192.065C273.534 192.065 271.49 192.201 269.489 192.465V122.471C269.489 120.776 268.814 119.15 267.618 117.951C266.419 116.753 264.791 116.079 263.097 116.079H96.9035C95.2081 116.079 93.5825 116.753 92.3834 117.951C91.1848 119.15 90.5114 120.776 90.5114 122.471V237.528C90.513 237.699 90.5215 237.869 90.5368 238.039V231.136L124.364 201.042C125.408 200.001 126.781 199.353 128.249 199.209C129.717 199.064 131.19 199.432 132.418 200.25L166.423 222.903L213.852 175.474C214.802 174.527 216.025 173.903 217.349 173.69C218.672 173.476 220.03 173.684 221.228 174.285L260.552 194.567C242.358 200.816 229.283 218.076 229.283 238.39C229.283 244.895 230.623 251.087 233.044 256.704H96.9035C91.8175 256.704 86.94 254.684 83.3437 251.088C79.7477 247.491 77.7272 242.614 77.7272 237.528V122.471C77.7272 117.385 79.7477 112.508 83.3437 108.911Z" fill="#BFBFBF"/>
<path opacity="0.5" d="M249.945 221.823L259.025 212.743L275.604 229.323L292.172 212.743L301.251 221.823L284.683 238.402L301.251 254.97L292.172 264.049L275.604 247.482L259.025 264.049L249.945 254.97L266.524 238.402L249.945 221.823Z" fill="#BFBFBF"/>
</svg>
